{
    "batchMode": true,
    "answers": {
        "*": {
            "themeName": "Default Theme",
            "themeId": "default-theme",
            "liferayVersion": "7.4",
            "fontAwesome": "true"
        }
    }
}
